# setting LC_ALL to "C"
# --> Including file '/afs/cern.ch/work/b/bwynne/IllyaGaudi/GaudiHive/options/BasicViewTest.py'
# <-- End of file '/afs/cern.ch/work/b/bwynne/IllyaGaudi/GaudiHive/options/BasicViewTest.py'
# Dumping all configurables and properties (different from default)
{'A1': {'Cardinality': 1,
        'OutputLevel': 3,
        'baseViewName': 'view',
        'viewNodeName': 'viewNode',
        'viewNumber': 2},
 'A2': {'Cardinality': 1, 'OutputLevel': 3, 'viewNodeName': ''},
 'A3': {'Cardinality': 1, 'OutputLevel': 3, 'viewNodeName': ''},
 'A4': {'Cardinality': 1, 'OutputLevel': 3, 'viewNodeName': ''},
 'AlgResourcePool': {'OutputLevel': 3},
 'ApplicationMgr': {'EventLoop': 'HiveSlimEventLoopMgr/HiveSlimEventLoopMgr',
                    'EvtMax': 10,
                    'EvtSel': 'NONE',
                    'ExtSvc': ['HiveWhiteBoard/EventDataSvc'],
                    'MessageSvcType': 'InertMessageSvc',
                    'TopAlg': ['GaudiSequencer/createViewSeq']},
 'AvalancheSchedulerSvc': {'OutputLevel': 3, 'ThreadPoolSize': 1},
 'EventDataSvc': {'EventSlots': 1},
 'HiveSlimEventLoopMgr': {'OutputLevel': 3,
                          'SchedulerName': 'AvalancheSchedulerSvc'},
 'createViewSeq': {'Members': ['Test::ViewTester/A1',
                               'GaudiSequencer/viewNode',
                               'Test::ViewTester/A4'],
                   'OutputLevel': 3,
                   'Sequential': True},
 'viewNode': {'Members': ['Test::ViewTester/A2', 'Test::ViewTester/A3'],
              'OutputLevel': 3,
              'Sequential': False,
              'ShortCircuit': False}}
MessageSvc           INFO Activating in a separate thread
ApplicationMgr    SUCCESS
====================================================================================================================================
                                                   Welcome to ApplicationMgr (GaudiCoreSvc v31r0)
                                          running on lxplus748.cern.ch on Thu May  2 18:45:31 2019
====================================================================================================================================
ApplicationMgr       INFO Application Manager Configured successfully
ThreadPoolSvc        INFO no thread init tools attached
AvalancheSchedu...   INFO Activating scheduler in a separate thread
AlgResourcePool      INFO TopAlg list empty. Recovering the one of Application Manager
createViewSeq        INFO Member list: Test::ViewTester/A1, GaudiSequencer/viewNode, Test::ViewTester/A4
RndmGenSvc.Engine    INFO Generator engine type:CLHEP::RanluxEngine
RndmGenSvc.Engine    INFO Current Seed:1234567 Luxury:3
RndmGenSvc           INFO Using Random engine:HepRndm::Engine<CLHEP::RanluxEngine>
ToolSvc.Sequenc...   INFO This machine has a speed about   3.03 times the speed of a 2.8 GHz Xeon.
viewNode             INFO Member list: Test::ViewTester/A2, Test::ViewTester/A3
AvalancheSchedu...   INFO Found 4 algorithms
AvalancheSchedu...   INFO Data Dependencies for Algorithms:
  A1
      none
  A2
      none
  A3
      none
  A4
      none
PrecedenceSvc        INFO Assembling CF and DF task precedence rules
PrecedenceSvc        INFO PrecedenceSvc initialized successfully
AvalancheSchedu...   INFO Concurrency level information:
AvalancheSchedu...   INFO  o Number of events in flight: 1
AvalancheSchedu...   INFO  o TBB thread pool size:  'ThreadPoolSize':1
HiveSlimEventLo...WARNING Unable to locate service "EventSelector"
HiveSlimEventLo...WARNING No events will be processed from external input.
HistogramPersis...WARNING Histograms saving not required.
HiveSlimEventLo...   INFO Found 0 events in black list
ApplicationMgr       INFO Application Manager Initialized successfully
ApplicationMgr       INFO Application Manager Started successfully
HiveSlimEventLo...   INFO Starting loop on events
A1                   INFO Running in whole event context
A1                   INFO Attached view view0 to node viewNode for s: 0  e: 0
A1                   INFO Attached view view1 to node viewNode for s: 0  e: 0
A2                   INFO Running in view view0
A3                   INFO Running in view view0
A2                   INFO Running in view view1
A3                   INFO Running in view view1
A4                   INFO Running in whole event context
A1                   INFO Running in whole event context
A1                   INFO Attached view view0 to node viewNode for s: 0  e: 1
A1                   INFO Attached view view1 to node viewNode for s: 0  e: 1
A2                   INFO Running in view view0
A3                   INFO Running in view view0
A2                   INFO Running in view view1
A3                   INFO Running in view view1
A4                   INFO Running in whole event context
A1                   INFO Running in whole event context
A1                   INFO Attached view view0 to node viewNode for s: 0  e: 2
A1                   INFO Attached view view1 to node viewNode for s: 0  e: 2
A2                   INFO Running in view view0
A3                   INFO Running in view view0
A2                   INFO Running in view view1
A3                   INFO Running in view view1
A4                   INFO Running in whole event context
A1                   INFO Running in whole event context
A1                   INFO Attached view view0 to node viewNode for s: 0  e: 3
A1                   INFO Attached view view1 to node viewNode for s: 0  e: 3
A2                   INFO Running in view view0
A3                   INFO Running in view view0
A2                   INFO Running in view view1
A3                   INFO Running in view view1
A4                   INFO Running in whole event context
A1                   INFO Running in whole event context
A1                   INFO Attached view view0 to node viewNode for s: 0  e: 4
A1                   INFO Attached view view1 to node viewNode for s: 0  e: 4
A2                   INFO Running in view view0
A3                   INFO Running in view view0
A2                   INFO Running in view view1
A3                   INFO Running in view view1
A4                   INFO Running in whole event context
A1                   INFO Running in whole event context
A1                   INFO Attached view view0 to node viewNode for s: 0  e: 5
A1                   INFO Attached view view1 to node viewNode for s: 0  e: 5
A2                   INFO Running in view view0
A3                   INFO Running in view view0
A2                   INFO Running in view view1
A3                   INFO Running in view view1
A4                   INFO Running in whole event context
A1                   INFO Running in whole event context
A1                   INFO Attached view view0 to node viewNode for s: 0  e: 6
A1                   INFO Attached view view1 to node viewNode for s: 0  e: 6
A2                   INFO Running in view view0
A3                   INFO Running in view view0
A2                   INFO Running in view view1
A3                   INFO Running in view view1
A4                   INFO Running in whole event context
A1                   INFO Running in whole event context
A1                   INFO Attached view view0 to node viewNode for s: 0  e: 7
A1                   INFO Attached view view1 to node viewNode for s: 0  e: 7
A2                   INFO Running in view view0
A3                   INFO Running in view view0
A2                   INFO Running in view view1
A3                   INFO Running in view view1
A4                   INFO Running in whole event context
A1                   INFO Running in whole event context
A1                   INFO Attached view view0 to node viewNode for s: 0  e: 8
A1                   INFO Attached view view1 to node viewNode for s: 0  e: 8
A2                   INFO Running in view view0
A3                   INFO Running in view view0
A2                   INFO Running in view view1
A3                   INFO Running in view view1
A4                   INFO Running in whole event context
A1                   INFO Running in whole event context
A1                   INFO Attached view view0 to node viewNode for s: 0  e: 9
A1                   INFO Attached view view1 to node viewNode for s: 0  e: 9
A2                   INFO Running in view view0
A3                   INFO Running in view view0
A2                   INFO Running in view view1
A3                   INFO Running in view view1
A4                   INFO Running in whole event context
HiveSlimEventLo...   INFO ---> Loop Finished (skipping 1st evt) -  WSS 49.7188 total time 1592237
HiveSlimEventLo...   INFO 0 events were SKIPed
ApplicationMgr       INFO Application Manager Stopped successfully
HiveSlimEventLo...   INFO Histograms converted successfully according to request.
AvalancheSchedu...   INFO Joining Scheduler thread
ToolSvc              INFO Removing all tools created by ToolSvc
ToolSvc.Sequenc...   INFO --------------------------------------------------------------------------------------------------
ToolSvc.Sequenc...   INFO This machine has a speed about   3.03 times the speed of a 2.8 GHz Xeon.
ToolSvc.Sequenc...   INFO Algorithm          (millisec) |    <user> |   <clock> |      min       max    sigma | entries | total (s) |
ToolSvc.Sequenc...   INFO --------------------------------------------------------------------------------------------------
ToolSvc.Sequenc...   INFO --------------------------------------------------------------------------------------------------
ApplicationMgr       INFO Application Manager Finalized successfully
ApplicationMgr       INFO Application Manager Terminated successfully
